%YAML 1.1
%TAG !u! tag:unity3d.com,2011:
--- !u!1 &140338
GameObject:
  m_ObjectHideFlags: 0
  m_CorrespondingSourceObject: {fileID: 0}
  m_PrefabInstance: {fileID: 0}
  m_PrefabAsset: {fileID: 0}
  serializedVersion: 6
  m_Component:
  - component: {fileID: 498012}
  - component: {fileID: 11457698}
  - component: {fileID: 65348164834954990}
  m_Layer: 17
  m_Name: Weapon_Shotgun_1
  m_TagString: Untagged
  m_Icon: {fileID: 0}
  m_NavMeshLayer: 0
  m_StaticEditorFlags: 0
  m_IsActive: 1
--- !u!4 &498012
Transform:
  m_ObjectHideFlags: 0
  m_CorrespondingSourceObject: {fileID: 0}
  m_PrefabInstance: {fileID: 0}
  m_PrefabAsset: {fileID: 0}
  m_GameObject: {fileID: 140338}
  m_LocalRotation: {x: 0, y: 0, z: 0, w: 1}
  m_LocalPosition: {x: 0, y: 0, z: 0}
  m_LocalScale: {x: 1.1500003, y: 1.1500003, z: 1.1499997}
  m_Children:
  - {fileID: 443206}
  - {fileID: 432476}
  - {fileID: 4738398851283280}
  m_Father: {fileID: 0}
  m_RootOrder: 0
  m_LocalEulerAnglesHint: {x: 0, y: 0, z: 0}
--- !u!114 &11457698
MonoBehaviour:
  m_ObjectHideFlags: 0
  m_CorrespondingSourceObject: {fileID: 0}
  m_PrefabInstance: {fileID: 0}
  m_PrefabAsset: {fileID: 0}
  m_GameObject: {fileID: 140338}
  m_Enabled: 1
  m_EditorHideFlags: 0
  m_Script: {fileID: 11500000, guid: f0e1c2577e36c4847882c37ea2d13168, type: 3}
  m_Name: 
  m_EditorClassIdentifier: 
  WeaponName: Shotgun
  Type: 1
  useIK: 1
  MeleeRadius: 1
  meleeDamage: 1
  BulletsPerShoot: 5
  BulletDamage: 20
  tempModFactor: 0
  BulletSize: 1
  BulletSpeed: 0.75
  BulletAccel: 0
  Bullets: 20
  ActualBullets: 0
  Clips: 10
  ActualClips: 0
  ReloadTime: 2
  playReloadAnim: 1
  bulletTimeToLive: 3
  Reloading: 0
  FireRate: 1
  AccDiv: 12.5
  radialAngleDirection: 0
  shootingNoise: 25
  useQuickReload: 1
  HUDquickReloadTimes: {x: 0.6, y: 0.65}
  shootShakeFactor: 2
  ShootFXPos: {fileID: 468470}
  BulletPrefab: {fileID: 129264, guid: c265361aa258faf449f73caf467c1112, type: 3}
  ShootFXFLash: {fileID: 139460, guid: 73eae4b8303463a419bf4eb29b8b4f75, type: 3}
  ShootFXLight: {fileID: 10834880}
  LaserSight: {fileID: 2342062}
  laserBeamPrefab: {fileID: 0}
  laserWidthFactor: 1
  laserLiveTime: 1
  warmingTime: 0.2
  generatesBloodDamage: 1
  warmingVFX: {fileID: 0}
  laserHitVFX: {fileID: 0}
  ShootTarget: {fileID: 0}
  Player: {fileID: 0}
  ShootSFX:
  - {fileID: 8300000, guid: 4718378dc4e8d064b86f2a59e1426f12, type: 3}
  ReloadSFX: {fileID: 8300000, guid: 780573ff5af3d0d46884b10ce0176600, type: 3}
  ShootEmptySFX: {fileID: 0}
  Audio: {fileID: 0}
  AutoAimAngle: 7.5
  AutoAimDistance: 10
  updateHUD: 1
  WeaponPicture: {fileID: 21300000, guid: 35ca5d94a7923f64caed86f8e258853e, type: 3}
  HUDWeaponPicture: {fileID: 0}
  HUDWeaponBullets: {fileID: 0}
  HUDWeaponBulletsBar: {fileID: 0}
  HUDWeaponClips: {fileID: 0}
  HUDquickRelaodMarker: {fileID: 0}
  HUDquickRelaodZone: {fileID: 0}
  usePooling: 1
  AIWeapon: 0
  AIEnemyTarget: {fileID: 0}
  turretWeapon: 0
  team: 0
--- !u!65 &65348164834954990
BoxCollider:
  m_ObjectHideFlags: 0
  m_CorrespondingSourceObject: {fileID: 0}
  m_PrefabInstance: {fileID: 0}
  m_PrefabAsset: {fileID: 0}
  m_GameObject: {fileID: 140338}
  m_Material: {fileID: 0}
  m_IsTrigger: 0
  m_Enabled: 0
  serializedVersion: 2
  m_Size: {x: 0.08, y: 0.24, z: 0.87}
  m_Center: {x: 0, y: 0, z: 0.18}
--- !u!1 &159554
GameObject:
  m_ObjectHideFlags: 0
  m_CorrespondingSourceObject: {fileID: 0}
  m_PrefabInstance: {fileID: 0}
  m_PrefabAsset: {fileID: 0}
  serializedVersion: 6
  m_Component:
  - component: {fileID: 443206}
  - component: {fileID: 13743418}
  m_Layer: 9
  m_Name: Weapon_Rifle_1
  m_TagString: Untagged
  m_Icon: {fileID: 0}
  m_NavMeshLayer: 0
  m_StaticEditorFlags: 0
  m_IsActive: 1
--- !u!4 &443206
Transform:
  m_ObjectHideFlags: 0
  m_CorrespondingSourceObject: {fileID: 0}
  m_PrefabInstance: {fileID: 0}
  m_PrefabAsset: {fileID: 0}
  m_GameObject: {fileID: 159554}
  m_LocalRotation: {x: -0.7071068, y: 0, z: -0, w: 0.7071068}
  m_LocalPosition: {x: 0.000000004328417, y: 0.0659954, z: 0.09902264}
  m_LocalScale: {x: 1, y: 1, z: 1}
  m_Children: []
  m_Father: {fileID: 498012}
  m_RootOrder: 0
  m_LocalEulerAnglesHint: {x: 0, y: 0, z: 0}
--- !u!137 &13743418
SkinnedMeshRenderer:
  m_ObjectHideFlags: 0
  m_CorrespondingSourceObject: {fileID: 0}
  m_PrefabInstance: {fileID: 0}
  m_PrefabAsset: {fileID: 0}
  m_GameObject: {fileID: 159554}
  m_Enabled: 1
  m_CastShadows: 1
  m_ReceiveShadows: 1
  m_DynamicOccludee: 1
  m_MotionVectors: 1
  m_LightProbeUsage: 1
  m_ReflectionProbeUsage: 1
  m_RayTracingMode: 0
  m_RenderingLayerMask: 1
  m_RendererPriority: 0
  m_Materials:
  - {fileID: 2100000, guid: 811bfde249015f34b96e27887110e9f9, type: 2}
  m_StaticBatchInfo:
    firstSubMesh: 0
    subMeshCount: 0
  m_StaticBatchRoot: {fileID: 0}
  m_ProbeAnchor: {fileID: 0}
  m_LightProbeVolumeOverride: {fileID: 0}
  m_ScaleInLightmap: 1
  m_ReceiveGI: 1
  m_PreserveUVs: 0
  m_IgnoreNormalsForChartDetection: 0
  m_ImportantGI: 0
  m_StitchLightmapSeams: 0
  m_SelectedEditorRenderState: 3
  m_MinimumChartSize: 4
  m_AutoUVMaxDistance: 0.5
  m_AutoUVMaxAngle: 89
  m_LightmapParameters: {fileID: 0}
  m_SortingLayerID: 0
  m_SortingLayer: 0
  m_SortingOrder: 0
  serializedVersion: 2
  m_Quality: 0
  m_UpdateWhenOffscreen: 0
  m_SkinnedMotionVectors: 1
  m_Mesh: {fileID: 4300000, guid: 41ddbc89f43ce1149ba4f6f0f8ad75c8, type: 3}
  m_Bones:
  - {fileID: 432476}
  m_BlendShapeWeights: []
  m_RootBone: {fileID: 432476}
  m_AABB:
    m_Center: {x: 0.000000022351742, y: -0.17944843, z: 0.009532675}
    m_Extent: {x: 0.042764366, y: 0.42456543, z: 0.14370155}
  m_DirtyAABB: 0
--- !u!1 &177126
GameObject:
  m_ObjectHideFlags: 0
  m_CorrespondingSourceObject: {fileID: 0}
  m_PrefabInstance: {fileID: 0}
  m_PrefabAsset: {fileID: 0}
  serializedVersion: 6
  m_Component:
  - component: {fileID: 475754}
  - component: {fileID: 10834880}
  - component: {fileID: 11400868}
  m_Layer: 9
  m_Name: MuzzleLight
  m_TagString: Untagged
  m_Icon: {fileID: 0}
  m_NavMeshLayer: 0
  m_StaticEditorFlags: 0
  m_IsActive: 1
--- !u!4 &475754
Transform:
  m_ObjectHideFlags: 0
  m_CorrespondingSourceObject: {fileID: 0}
  m_PrefabInstance: {fileID: 0}
  m_PrefabAsset: {fileID: 0}
  m_GameObject: {fileID: 177126}
  m_LocalRotation: {x: 0, y: 0, z: 0, w: 1}
  m_LocalPosition: {x: 0, y: 0, z: 0}
  m_LocalScale: {x: 1, y: 1, z: 1}
  m_Children: []
  m_Father: {fileID: 468470}
  m_RootOrder: 0
  m_LocalEulerAnglesHint: {x: 0, y: 0, z: 0}
--- !u!108 &10834880
Light:
  m_ObjectHideFlags: 0
  m_CorrespondingSourceObject: {fileID: 0}
  m_PrefabInstance: {fileID: 0}
  m_PrefabAsset: {fileID: 0}
  m_GameObject: {fileID: 177126}
  m_Enabled: 1
  serializedVersion: 10
  m_Type: 2
  m_Shape: 0
  m_Color: {r: 1, g: 0.8661257, b: 0.5147059, a: 1}
  m_Intensity: 0
  m_Range: 3
  m_SpotAngle: 30
  m_InnerSpotAngle: 21.80208
  m_CookieSize: 10
  m_Shadows:
    m_Type: 2
    m_Resolution: -1
    m_CustomResolution: -1
    m_Strength: 1
    m_Bias: 0.05
    m_NormalBias: 0.4
    m_NearPlane: 0.2
    m_CullingMatrixOverride:
      e00: 1
      e01: 0
      e02: 0
      e03: 0
      e10: 0
      e11: 1
      e12: 0
      e13: 0
      e20: 0
      e21: 0
      e22: 1
      e23: 0
      e30: 0
      e31: 0
      e32: 0
      e33: 1
    m_UseCullingMatrixOverride: 0
  m_Cookie: {fileID: 0}
  m_DrawHalo: 0
  m_Flare: {fileID: 0}
  m_RenderMode: 0
  m_CullingMask:
    serializedVersion: 2
    m_Bits: 4294967295
  m_RenderingLayerMask: 1
  m_Lightmapping: 4
  m_LightShadowCasterMode: 0
  m_AreaSize: {x: 1, y: 1}
  m_BounceIntensity: 1
  m_ColorTemperature: 6570
  m_UseColorTemperature: 0
  m_BoundingSphereOverride: {x: 0, y: 0, z: 0, w: 0}
  m_UseBoundingSphereOverride: 0
  m_ShadowRadius: 0
  m_ShadowAngle: 0
--- !u!114 &11400868
MonoBehaviour:
  m_ObjectHideFlags: 0
  m_CorrespondingSourceObject: {fileID: 0}
  m_PrefabInstance: {fileID: 0}
  m_PrefabAsset: {fileID: 0}
  m_GameObject: {fileID: 177126}
  m_Enabled: 1
  m_EditorHideFlags: 0
  m_Script: {fileID: 11500000, guid: 6d916fe9c3974d447b607375a44ea476, type: 3}
  m_Name: 
  m_EditorClassIdentifier: 
  Factor: 0
  initialFactor: 3.5
  EndFactor: 0
  Timer: 50
  Animate: 0
--- !u!1 &183936
GameObject:
  m_ObjectHideFlags: 0
  m_CorrespondingSourceObject: {fileID: 0}
  m_PrefabInstance: {fileID: 0}
  m_PrefabAsset: {fileID: 0}
  serializedVersion: 6
  m_Component:
  - component: {fileID: 406416}
  - component: {fileID: 3352144}
  - component: {fileID: 2342062}
  m_Layer: 9
  m_Name: Laser
  m_TagString: Untagged
  m_Icon: {fileID: 0}
  m_NavMeshLayer: 0
  m_StaticEditorFlags: 0
  m_IsActive: 0
--- !u!4 &406416
Transform:
  m_ObjectHideFlags: 0
  m_CorrespondingSourceObject: {fileID: 0}
  m_PrefabInstance: {fileID: 0}
  m_PrefabAsset: {fileID: 0}
  m_GameObject: {fileID: 183936}
  m_LocalRotation: {x: 1.1641531e-10, y: 0, z: -0.000000009313225, w: 1}
  m_LocalPosition: {x: 0, y: 0, z: 4.999002}
  m_LocalScale: {x: 0.024999985, y: 0.024999997, z: 10}
  m_Children: []
  m_Father: {fileID: 468470}
  m_RootOrder: 1
  m_LocalEulerAnglesHint: {x: 0, y: 0, z: 0}
--- !u!33 &3352144
MeshFilter:
  m_ObjectHideFlags: 0
  m_CorrespondingSourceObject: {fileID: 0}
  m_PrefabInstance: {fileID: 0}
  m_PrefabAsset: {fileID: 0}
  m_GameObject: {fileID: 183936}
  m_Mesh: {fileID: 10202, guid: 0000000000000000e000000000000000, type: 0}
--- !u!23 &2342062
MeshRenderer:
  m_ObjectHideFlags: 0
  m_CorrespondingSourceObject: {fileID: 0}
  m_PrefabInstance: {fileID: 0}
  m_PrefabAsset: {fileID: 0}
  m_GameObject: {fileID: 183936}
  m_Enabled: 0
  m_CastShadows: 1
  m_ReceiveShadows: 1
  m_DynamicOccludee: 1
  m_MotionVectors: 1
  m_LightProbeUsage: 1
  m_ReflectionProbeUsage: 1
  m_RayTracingMode: 2
  m_RenderingLayerMask: 1
  m_RendererPriority: 0
  m_Materials:
  - {fileID: 2100000, guid: 26f5a18739906644e944e7ce331bf3e7, type: 2}
  m_StaticBatchInfo:
    firstSubMesh: 0
    subMeshCount: 0
  m_StaticBatchRoot: {fileID: 0}
  m_ProbeAnchor: {fileID: 0}
  m_LightProbeVolumeOverride: {fileID: 0}
  m_ScaleInLightmap: 1
  m_ReceiveGI: 1
  m_PreserveUVs: 1
  m_IgnoreNormalsForChartDetection: 0
  m_ImportantGI: 0
  m_StitchLightmapSeams: 0
  m_SelectedEditorRenderState: 3
  m_MinimumChartSize: 4
  m_AutoUVMaxDistance: 0.5
  m_AutoUVMaxAngle: 89
  m_LightmapParameters: {fileID: 0}
  m_SortingLayerID: 0
  m_SortingLayer: 0
  m_SortingOrder: 0
--- !u!1 &184864
GameObject:
  m_ObjectHideFlags: 0
  m_CorrespondingSourceObject: {fileID: 0}
  m_PrefabInstance: {fileID: 0}
  m_PrefabAsset: {fileID: 0}
  serializedVersion: 6
  m_Component:
  - component: {fileID: 432476}
  m_Layer: 9
  m_Name: WeaponGrip
  m_TagString: Untagged
  m_Icon: {fileID: 0}
  m_NavMeshLayer: 0
  m_StaticEditorFlags: 0
  m_IsActive: 1
--- !u!4 &432476
Transform:
  m_ObjectHideFlags: 0
  m_CorrespondingSourceObject: {fileID: 0}
  m_PrefabInstance: {fileID: 0}
  m_PrefabAsset: {fileID: 0}
  m_GameObject: {fileID: 184864}
  m_LocalRotation: {x: -0.7071069, y: -0.000000010536713, z: 0.000000010536709, w: 0.70710665}
  m_LocalPosition: {x: 0, y: 0, z: 0}
  m_LocalScale: {x: 1, y: 1.0000004, z: 1.0000002}
  m_Children:
  - {fileID: 468470}
  m_Father: {fileID: 498012}
  m_RootOrder: 1
  m_LocalEulerAnglesHint: {x: 0, y: 0, z: 0}
--- !u!1 &197662
GameObject:
  m_ObjectHideFlags: 0
  m_CorrespondingSourceObject: {fileID: 0}
  m_PrefabInstance: {fileID: 0}
  m_PrefabAsset: {fileID: 0}
  serializedVersion: 6
  m_Component:
  - component: {fileID: 468470}
  m_Layer: 9
  m_Name: ShootFX
  m_TagString: Untagged
  m_Icon: {fileID: 0}
  m_NavMeshLayer: 0
  m_StaticEditorFlags: 0
  m_IsActive: 1
--- !u!4 &468470
Transform:
  m_ObjectHideFlags: 0
  m_CorrespondingSourceObject: {fileID: 0}
  m_PrefabInstance: {fileID: 0}
  m_PrefabAsset: {fileID: 0}
  m_GameObject: {fileID: 197662}
  m_LocalRotation: {x: 0.70710695, y: -0.000000026341775, z: 0.0000000052683595, w: 0.70710665}
  m_LocalPosition: {x: 0.00000014087723, y: -0.6141934, z: 0.062163576}
  m_LocalScale: {x: 1, y: 0.99999976, z: 0.99999964}
  m_Children:
  - {fileID: 475754}
  - {fileID: 406416}
  m_Father: {fileID: 432476}
  m_RootOrder: 0
  m_LocalEulerAnglesHint: {x: 0, y: 0, z: 0}
--- !u!1 &1168762936289292
GameObject:
  m_ObjectHideFlags: 0
  m_CorrespondingSourceObject: {fileID: 0}
  m_PrefabInstance: {fileID: 0}
  m_PrefabAsset: {fileID: 0}
  serializedVersion: 6
  m_Component:
  - component: {fileID: 4738398851283280}
  - component: {fileID: 114637520831037040}
  m_Layer: 9
  m_Name: ArmIK
  m_TagString: Untagged
  m_Icon: {fileID: 0}
  m_NavMeshLayer: 0
  m_StaticEditorFlags: 0
  m_IsActive: 1
--- !u!4 &4738398851283280
Transform:
  m_ObjectHideFlags: 0
  m_CorrespondingSourceObject: {fileID: 0}
  m_PrefabInstance: {fileID: 0}
  m_PrefabAsset: {fileID: 0}
  m_GameObject: {fileID: 1168762936289292}
  m_LocalRotation: {x: 0.70632386, y: 0.033256344, z: 0.7063248, w: -0.033254646}
  m_LocalPosition: {x: -0.09599998, y: -0.08499988, z: 0.39100012}
  m_LocalScale: {x: 1, y: 1, z: 1}
  m_Children: []
  m_Father: {fileID: 498012}
  m_RootOrder: 2
  m_LocalEulerAnglesHint: {x: -5.3910003, y: 90.00001, z: 180.00002}
--- !u!114 &114637520831037040
MonoBehaviour:
  m_ObjectHideFlags: 0
  m_CorrespondingSourceObject: {fileID: 0}
  m_PrefabInstance: {fileID: 0}
  m_PrefabAsset: {fileID: 0}
  m_GameObject: {fileID: 1168762936289292}
  m_Enabled: 1
  m_EditorHideFlags: 0
  m_Script: {fileID: 11500000, guid: 27feffa07983508459668817cfc60f0d, type: 3}
  m_Name: 
  m_EditorClassIdentifier: 
  WeaponReference: {fileID: 4300000, guid: a84e0ea13527d5245a4ae4c35c79d365, type: 3}
  meshScale: 0.1
